%YAML 1.1
%TAG !u! tag:unity3d.com,2011:
--- !u!114 &11400000
MonoBehaviour:
  m_ObjectHideFlags: 0
  m_PrefabParentObject: {fileID: 0}
  m_PrefabInternal: {fileID: 0}
  m_GameObject: {fileID: 0}
  m_Enabled: 1
  m_EditorHideFlags: 0
  m_Script: {fileID: 11500000, guid: e2d7b10db1afb0d47b2a84d26cb840a5, type: 3}
  m_Name: Rocket
  m_EditorClassIdentifier: 
  StartSpeed: 115
  Mass: 2.6
  Radius: 0.0465
  Length: 0.9
  ForwardDrag: 0.2
  SideDrag: 0.9
  MaxDeviation: 30
  MaxPenetration: 3000
  RicochetChance:
    serializedVersion: 2
    m_Curve:
    - serializedVersion: 2
      time: 0
      value: -0.0000030510128
      inSlope: 0
      outSlope: 0
      tangentMode: 0
    - serializedVersion: 2
      time: 0.8
      value: 0.045187235
      inSlope: 0.042730927
      outSlope: 0.042730927
      tangentMode: 0
    - serializedVersion: 2
      time: 1
      value: 1
      inSlope: 4.71478
      outSlope: 4.71478
      tangentMode: 0
    m_PreInfinity: 2
    m_PostInfinity: 2
    m_RotationOrder: 0
  Lifetime: 5
  MinimalVelocity: 1
