%YAML 1.1
%TAG !u! tag:unity3d.com,2011:
--- !u!1 &1487361911431510
GameObject:
  m_ObjectHideFlags: 0
  m_CorrespondingSourceObject: {fileID: 0}
  m_PrefabInstance: {fileID: 0}
  m_PrefabAsset: {fileID: 0}
  serializedVersion: 6
  m_Component:
  - component: {fileID: 4423380828712146}
  - component: {fileID: 114641756012827214}
  - component: {fileID: 5620308310823989266}
  m_Layer: 0
  m_Name: Bullet TopDown
  m_TagString: Untagged
  m_Icon: {fileID: 0}
  m_NavMeshLayer: 0
  m_StaticEditorFlags: 0
  m_IsActive: 1
--- !u!4 &4423380828712146
Transform:
  m_ObjectHideFlags: 0
  m_CorrespondingSourceObject: {fileID: 0}
  m_PrefabInstance: {fileID: 0}
  m_PrefabAsset: {fileID: 0}
  m_GameObject: {fileID: 1487361911431510}
  m_LocalRotation: {x: 0, y: 0, z: 0, w: 1}
  m_LocalPosition: {x: 0, y: 0, z: 0}
  m_LocalScale: {x: 1, y: 1, z: 1}
  m_Children: []
  m_Father: {fileID: 0}
  m_RootOrder: 0
  m_LocalEulerAnglesHint: {x: 0, y: 0, z: 0}
--- !u!114 &114641756012827214
MonoBehaviour:
  m_ObjectHideFlags: 0
  m_CorrespondingSourceObject: {fileID: 0}
  m_PrefabInstance: {fileID: 0}
  m_PrefabAsset: {fileID: 0}
  m_GameObject: {fileID: 1487361911431510}
  m_Enabled: 1
  m_EditorHideFlags: 0
  m_Script: {fileID: 11500000, guid: 215b4dd4c0c103a4288e98ee0df60981, type: 3}
  m_Name: 
  m_EditorClassIdentifier: 
  Prefab: {fileID: 1795640136097750, guid: 5717f2b527030c843803b2426e26d42c, type: 3}
  Lifetime: 5
  UsePooling: 1
--- !u!114 &5620308310823989266
MonoBehaviour:
  m_ObjectHideFlags: 0
  m_CorrespondingSourceObject: {fileID: 0}
  m_PrefabInstance: {fileID: 0}
  m_PrefabAsset: {fileID: 0}
  m_GameObject: {fileID: 1487361911431510}
  m_Enabled: 1
  m_EditorHideFlags: 0
  m_Script: {fileID: 11500000, guid: afaa2685d437ddc4f81c6bbac23edfe2, type: 3}
  m_Name: 
  m_EditorClassIdentifier: 
  Config: {fileID: 11400000, guid: 66e255c3722340541a08d27f6b5fb58b, type: 2}
  damage: 1
