%YAML 1.1
%TAG !u! tag:unity3d.com,2011:
--- !u!114 &11400000
MonoBehaviour:
  m_ObjectHideFlags: 0
  m_PrefabParentObject: {fileID: 0}
  m_PrefabInternal: {fileID: 0}
  m_GameObject: {fileID: 0}
  m_Enabled: 1
  m_EditorHideFlags: 0
  m_Script: {fileID: 11500000, guid: d689aac8d2939ef4c99e1e49eff839ac, type: 3}
  m_Name: Ground
  m_EditorClassIdentifier: 
  Density: 1800
  RicochetMultiplier: 10
  effectsDefault:
    EntryDecal: {fileID: 1082156056986086, guid: a4ed90de874055c45b2386beadc1a72a,
      type: 2}
    ExitDecal: {fileID: 1082156056986086, guid: a4ed90de874055c45b2386beadc1a72a,
      type: 2}
    ApplyProjectileSize: 1
    DecalScale: 5
    EntryParticleSystem: {fileID: 1969557434445372, guid: 9089d45aa0d2f2d429ba295aae25bca6,
      type: 2}
    ExitParticleSystem: {fileID: 0}
    HitSound: {fileID: 0}
    PenetrationSound: {fileID: 0}
    RicochetSound: {fileID: 0}
  effectsOverride:
  - EntryDecal: {fileID: 1082156056986086, guid: 00535bc9fbde24140a40a308e8b98f67,
      type: 2}
    ExitDecal: {fileID: 1082156056986086, guid: 00535bc9fbde24140a40a308e8b98f67,
      type: 2}
    ApplyProjectileSize: 1
    DecalScale: 5
    EntryParticleSystem: {fileID: 0}
    ExitParticleSystem: {fileID: 0}
    HitSound: {fileID: 0}
    PenetrationSound: {fileID: 0}
    RicochetSound: {fileID: 0}
    Type: {fileID: 11400000, guid: a0b3e4a76b1d89c40a3c269bb6f3d20a, type: 2}
  - EntryDecal: {fileID: 1082156056986086, guid: a4ed90de874055c45b2386beadc1a72a,
      type: 2}
    ExitDecal: {fileID: 1082156056986086, guid: a4ed90de874055c45b2386beadc1a72a,
      type: 2}
    ApplyProjectileSize: 1
    DecalScale: 1
    EntryParticleSystem: {fileID: 0}
    ExitParticleSystem: {fileID: 0}
    HitSound: {fileID: 0}
    PenetrationSound: {fileID: 0}
    RicochetSound: {fileID: 0}
    Type: {fileID: 11400000, guid: 8db59161eeb16a74a9a801f0fa581b87, type: 2}
